vcd/Multiplier_8x8_tb_3.vcd
$date
	Fri Sep 13 22:40:08 2024
$end
$version
	Icarus Verilog
$end
$timescale
	1ns
$end
$scope module Multiplier_8x8_tb $end
$scope module DUT $end
$var wire 4 ! A [3:0] $end
$var wire 4 " B [3:0] $end
$var wire 1 # Sign $end
$var wire 5 $ Sum_Sign [4:0] $end
$var wire 4 % Sum_2 [3:0] $end
$var wire 4 & Sum_1 [3:0] $end
$var wire 8 ' Result [7:0] $end
$var wire 5 ( Carry_2 [4:0] $end
$var wire 5 ) Carry_1 [4:0] $end
$var wire 16 * And_array [15:0] $end
$upscope $end
$upscope $end
$enddefinitions $end
$comment Show the parameter values. $end
$dumpall
$end
#0
$dumpvars
b1011000000000100 *
b0 )
b0 (
b11011100 '
b111 &
b1011 %
b11011 $
1#
b100 "
b1001 !
$end
#20
b11111 $
b1111 %
b11111000 '
b1110 &
b1111000000000000 *
b11 "
b0 !
#40
b10000 '
b1010 (
b1000 )
b11000 $
b1000 %
b1010 &
b1011100010001000 *
b1100 "
b1000 !
#60
b11111000 '
b0 (
b0 )
b11111 $
b1111 %
b1110 &
b1111000000000000 *
b0 "
b11 !
#80
b110000 '
b10010 (
b10100 $
b100 %
b10 &
b11000 )
b1111100010001000 *
b1000 "
b1000 !
#100
b10000 (
b10000 )
b10010 $
b10 %
b100 &
b10011 '
b1110100000010001 *
b1001 "
b1011 !
#120
b11110 $
b1110 %
b0 (
b1100 )
b1 &
b11110100 '
b1011010001000100 *
b1100 "
b1111 !
#140
b110 (
b11000 $
b1000 %
b110 )
b110 &
b11110010 '
b1001011001100110 *
b110 "
#160
b1000 (
b11010 $
b1010 %
b10110 '
b1100 )
b1001 &
b1111010101010000 *
b101 "
b110 !
#180
b11100 $
b1100 %
b10 (
b1010 &
b11 )
b11110101 '
b1100001100110011 *
b11 "
b1111 !
#200
b10 (
b10 &
b11100 $
b1100 %
b11000 )
b11110000 '
b111100010001000 *
b1100 "
b0 !
#220
b110 &
b110 )
b11110010 '
b11000 $
b1000 %
b110 (
b1001011001100110 *
b110 "
b1111 !
#240
b100010 '
b1010 (
b11010 $
b1010 %
b1110 )
b1010 &
b1111011001100110 *
b111 !
#260
b11011 $
b1011 %
b0 (
b11011010 '
b0 )
b110 &
b1010000001010000 *
b101 "
b1010 !
#280
b11111 $
b1111 %
b1110 &
b11111011 '
b1111000000000011 *
b11 "
b1 !
#300
b110 &
b10000 )
b11011 $
b1011 %
b11011000 '
b111100000000000 *
b1000 "
b11 !
#320
b11010100 '
b1010 (
b10000 $
b0 %
b1011 &
b1000 )
b111000110001000 *
b1001 "
b100 !
#340
b11101100 '
b0 (
b1000 )
b11 &
b11101 $
b1101 %
b1011010000000100 *
b100 "
b1101 !
#360
b11111 $
b1111 %
b11111000 '
b0 )
b1110 &
b1111000000000000 *
b0 "
b100 !
#380
b10 "
b0 !
#400
b10 (
b10 )
b110 %
b1000010 '
b1110 &
b110000001100110 *
b110 "
b1011 !
b110 $
0#
#420
b0 (
b0 $
b0 %
b0 )
b0 '
b0 &
b0 *
b101 "
b0 !
#440
b110000 '
b110 $
b110 %
b1100 &
b110000000000000 *
b110 "
b1000 !
#460
b1001000 '
b0 &
b1001 $
b1001 %
b1000000000001000 *
b1000 "
b1001 !
#480
b1 &
b110 '
b0 $
b0 %
b100010000 *
b1 "
b110 !
#500
b10010 (
b10110100 '
b11000 )
b100 $
b100 %
b11 &
b1100110011001100 *
b1100 "
b1111 !
#520
b111100 '
b0 )
b111 $
b111 %
b0 (
b1111 &
b110000001100000 *
b110 "
b1010 !
#540
b101 $
b101 %
b0 (
b101100 '
b0 )
b1011 &
b100000001000100 *
b100 "
b1011 !
#560
b10010 (
b0 &
b11110 )
b110 $
b110 %
b11000011 '
b1101110111011101 *
b1101 "
b1111 !
#580
b10000 (
b11100 )
b110 $
b110 %
b1 &
b10110110 '
b1101110111010000 *
b1110 !
#600
b0 )
b1001 &
b101 $
b101 %
b0 (
b101101 '
b100100001001 *
b1001 "
b101 !
#620
b0 $
b0 %
b0 &
b0 '
b0 *
b11 "
b0 !
#640
b1111000 '
b1110 &
b1111 $
b1111 %
b1010101000000000 *
b1010 "
b1100 !
#660
b0 (
b0 &
b1 $
b1 %
b1001 '
b1001 *
b1001 "
b1 !
#680
b11 $
b11 %
b100 &
b11000 '
b10001000 *
b1000 "
b11 !
#700
b10110 (
b11110 )
b11010010 '
b100 $
b100 %
b1110111011101110 *
b1110 "
b1111 !
#720
b1101 $
b1101 %
b0 (
b1101110 '
b1000 )
b1 &
b1010000010101010 *
b1010 "
b1011 !
#740
b10000 (
b100 &
b10 $
b10 %
b10000 )
b10010000 '
b1100110000000000 *
b1100 "
b1100 !
#760
b110 )
b101 $
b101 %
b100 (
b1100 &
b1001011 '
b101010101010101 *
b101 "
b1111 !
#780
b0 (
b1 $
b1 %
b0 )
b10 &
b1000 '
b1000000000 *
b10 "
b100 !
